{
  "output": "./e2e/output",
  "helpers": {
    "Puppeteer": {
      "chrome": {
        "args": ["--no-sandbox", "--disable-dev-shm-usage"]
      },
      "url": "http://localhost:3000",
      "show": true,
      "waitForNavigation": ["networkidle0", "domcontentloaded"],
      "waitForAction": 500
    }
  },
  "mocha": {},
  "bootstrap": false,
  "teardown": null,
  "hooks": [],
  "gherkin": {
    "features": "./e2e/features/*.feature",
    "steps": [
      "./e2e/definitions/common.js",
      "./e2e/definitions/login.js",
      "./e2e/definitions/reservation.js"
    ]
  },
  "plugins": {
    "screenshotOnFail": {
      "enabled": true
    }
  },
  "timeout": 10000,
  "name": "test"
}
